04.decision_tree_initail_model
…
1.9  

textbook p.44 ~ 50   ###  

tree_train_pred <- 
  predict(tree_train_fit, 
          train_data, 
          type = "prob") %>%
  bind_cols(predict(tree_train_fit, 
                    train_data)) %>% 
  bind_cols(train_data %>% 
              select(Personal_Loan)) %>%
  print()

## # A tibble: 3,500 x 4
##    .pred_Yes .pred_No .pred_class Personal_Loan
##        <dbl>    <dbl> <fct>       <fct>        
##  1     0       1      No          No           
##  2     0       1      No          No           
##  3     0       1      No          No           
##  4     0       1      No          No           
##  5     0.985   0.0149 Yes         Yes          
##  6     0.170   0.830  No          No           
##  7     0       1      No          No           
##  8     0.333   0.667  No          No           
##  9     0       1      No          No           
## 10     0       1      No          No           
## # ... with 3,490 more rows
…
1.9.3  : collect_predictions()

tree_test_pred <- 
  tree_test_fit %>%
  collect_predictions()

tree_test_pred

## # A tibble: 1,500 x 7
##    id               .pred_Yes .pred_No  .row .pred_class Personal_Loan .config  
##    <chr>                <dbl>    <dbl> <int> <fct>       <fct>         <chr>    
##  1 train/test split   0          1         3 No          No            Preproce~
##  2 train/test split   0          1         4 No          No            Preproce~
##  3 train/test split   0          1         6 No          No            Preproce~
##  4 train/test split   0          1         8 No          No            Preproce~
##  5 train/test split   0          1         9 No          No            Preproce~
##  6 train/test split   0.00443    0.996    15 No          No            Preproce~
##  7 train/test split   0          1        23 No          No            Preproce~
##  8 train/test split   0          1        24 No          No            Preproce~
##  9 train/test split   0          1        31 No          No            Preproce~
## 10 train/test split   0          1        33 No          No            Preproce~
## # ... with 1,490 more rows
…
